…
Test the above function on $\mu = 0$. Obtain 5000 datasets and t test
results by running the above function.

``` r
mu = 0

mu0_res = expand_grid(id = 1:5000) |> 
  mutate(res = map(id, 
                   ~ t_test_sim(mu = 0))) |> 
  unnest(res)

mu0_res
```

    ## # A tibble: 5,000 × 3
    ##       id  mu_hat p_value
    ##    <int>   <dbl>   <dbl>
    ##  1     1  1.11    0.283 
    ##  2     2 -0.939   0.236 
    ##  3     3 -0.0423  0.959 
    ##  4     4 -1.59    0.101 
    ##  5     5  1.75    0.0482
    ##  6     6 -0.150   0.857 
    ##  7     7 -0.222   0.843 
    ##  8     8 -0.179   0.822 
    ##  9     9 -0.344   0.652 
    ## 10    10  0.464   0.548 
    ## # ℹ 4,990 more rows
…
